{
  "head": {
    "jquery": {
      "js": [
        "./vendor/jquery/jquery-3.3.1.min.js"
      ]
    },
    "popper": {
      "js": [
        "./vendor/popper/popper.min.js"
      ]
    },
    "bootstrap": {
      "js": [
        "./vendor/bootstrap/js/bootstrap.min.js"
      ]
    },
    "owl-carousel": {
      "css": [
        "./vendor/owl-carousel/css/owl.carousel.min.css"
      ],
      "js": [
        "./vendor/owl-carousel/js/owl.carousel.min.js"
      ]
    },
    "slick-carousel": {
      "css": [
        "./vendor/slick-carousel/css/slick.min.css"
      ],
      "js": [
        "./vendor/slick-carousel/js/slick.min.js"
      ]
    },
    "fontawesome": {
      "css": [
        "./vendor/font-awesome-4.7.0/css/font-awesome.min.css"
      ]
    },
    "animate": {
      "css": [
        "./vendor/animate/animate.min.css"
      ]
    },
    "jquery-ui": {
      "css": [
        "https://cdnjs.cloudflare.com/ajax/libs/jqueryui/1.12.1/themes/base/jquery-ui.css"
      ],
      "js": [
        "https://cdnjs.cloudflare.com/ajax/libs/jqueryui/1.12.1/jquery-ui.js"
      ]
    },
    "ripple": {
      "css": [
        "./vendor/ripple/css/ripple.min.css"
      ],
      "js": [
        "./vendor/ripple/js/ripple.min.js"
      ]
    },
    "lazy": {
      "js": [
        "./vendor/lazysizes/lazysizes.min.js"
      ]
    },
    "bootstrap-datepicker": {
      "css": [
        "./vendor/bootstrap-datepicker/css/bootstrap-datepicker.min.css",
        "./vendor/bootstrap-datepicker/css/bootstrap-datepicker.standalone.min.css"
      ],
      "js": [
        "./vendor/bootstrap-datepicker/js/bootstrap-datepicker.min.js"
      ]
    },
    "clockpicker": {
      "css": [
        "./vendor/clockpicker/css/bootstrap-clockpicker.min.css"
      ],
      "js": [
        "./vendor/clockpicker/js/bootstrap-clockpicker.min.js"
      ]
    },
    "photoswipe": {
      "css": [
        "./vendor/photoswipe/photoswipe.min.css",
        "./vendor/photoswipe/photoswipe-default-skin.min.css"
      ],
      "js": [
        "./vendor/photoswipe/photoswipe.min.js",
        "./vendor/photoswipe/photoswipe-ui-default.min.js"
      ]
    },
    "swiper": {
      "css": [
        "./vendor/swiper/css/swiper.min.css"
      ],
      "js": [
        "./vendor/swiper/js/swiper.min.js"
      ]
    },
    "moment": {
      "js": [
        "./vendor/moment/moment.min.js"
      ]
    },
    "underscore": {
      "js": [
        "https://cdnjs.cloudflare.com/ajax/libs/underscore.js/1.9.1/underscore-min.js"
      ]
    },
    "clndr": {
      "js": [
        "https://cdnjs.cloudflare.com/ajax/libs/clndr/1.4.7/clndr.min.js"
      ]
    },
    "elevatezoom": {
      "js": [
        "./vendor/elevatezoom/elevatezoom.min.js"
      ]
    }
  }
}
